simulation/qsim/projeto1.msim.vcd
$comment
	File created using the following command:
		vcd file projeto1.msim.vcd -direction
$end
$date
	Fri Oct 16 11:04:36 2020
$end
$version
	ModelSim Version 2020.1
$end
$timescale
	1ps
$end

$scope module fetch_vhd_vec_tst $end
$var wire 1 ! clk $end
$var wire 1 " flag $end
$var wire 1 # instrucaoOut [16] $end
$var wire 1 $ instrucaoOut [15] $end
$var wire 1 % instrucaoOut [14] $end
$var wire 1 & instrucaoOut [13] $end
$var wire 1 ' instrucaoOut [12] $end
$var wire 1 ( instrucaoOut [11] $end
$var wire 1 ) instrucaoOut [10] $end
$var wire 1 * instrucaoOut [9] $end
$var wire 1 + instrucaoOut [8] $end
$var wire 1 , instrucaoOut [7] $end
$var wire 1 - instrucaoOut [6] $end
$var wire 1 . instrucaoOut [5] $end
$var wire 1 / instrucaoOut [4] $end
$var wire 1 0 instrucaoOut [3] $end
$var wire 1 1 instrucaoOut [2] $end
$var wire 1 2 instrucaoOut [1] $end
$var wire 1 3 instrucaoOut [0] $end
$var wire 1 4 je $end
$var wire 1 5 pinoTeste [9] $end
$var wire 1 6 pinoTeste [8] $end
$var wire 1 7 pinoTeste [7] $end
$var wire 1 8 pinoTeste [6] $end
$var wire 1 9 pinoTeste [5] $end
$var wire 1 : pinoTeste [4] $end
$var wire 1 ; pinoTeste [3] $end
$var wire 1 < pinoTeste [2] $end
$var wire 1 = pinoTeste [1] $end
$var wire 1 > pinoTeste [0] $end
$var wire 1 ? sel_MuxJump $end

$scope module i1 $end
$var wire 1 @ gnd $end
$var wire 1 A vcc $end
$var wire 1 B unknown $end
$var wire 1 C devoe $end
$var wire 1 D devclrn $end
$var wire 1 E devpor $end
$var wire 1 F ww_devoe $end
$var wire 1 G ww_devclrn $end
$var wire 1 H ww_devpor $end
$var wire 1 I ww_clk $end
$var wire 1 J ww_je $end
$var wire 1 K ww_sel_MuxJump $end
$var wire 1 L ww_flag $end
$var wire 1 M ww_instrucaoOut [16] $end
$var wire 1 N ww_instrucaoOut [15] $end
$var wire 1 O ww_instrucaoOut [14] $end
$var wire 1 P ww_instrucaoOut [13] $end
$var wire 1 Q ww_instrucaoOut [12] $end
$var wire 1 R ww_instrucaoOut [11] $end
$var wire 1 S ww_instrucaoOut [10] $end
$var wire 1 T ww_instrucaoOut [9] $end
$var wire 1 U ww_instrucaoOut [8] $end
$var wire 1 V ww_instrucaoOut [7] $end
$var wire 1 W ww_instrucaoOut [6] $end
$var wire 1 X ww_instrucaoOut [5] $end
$var wire 1 Y ww_instrucaoOut [4] $end
$var wire 1 Z ww_instrucaoOut [3] $end
$var wire 1 [ ww_instrucaoOut [2] $end
$var wire 1 \ ww_instrucaoOut [1] $end
$var wire 1 ] ww_instrucaoOut [0] $end
$var wire 1 ^ ww_pinoTeste [9] $end
$var wire 1 _ ww_pinoTeste [8] $end
$var wire 1 ` ww_pinoTeste [7] $end
$var wire 1 a ww_pinoTeste [6] $end
$var wire 1 b ww_pinoTeste [5] $end
$var wire 1 c ww_pinoTeste [4] $end
$var wire 1 d ww_pinoTeste [3] $end
$var wire 1 e ww_pinoTeste [2] $end
$var wire 1 f ww_pinoTeste [1] $end
$var wire 1 g ww_pinoTeste [0] $end
$var wire 1 h \clk~input_o\ $end
$var wire 1 i \clk~inputCLKENA0_outclk\ $end
$var wire 1 j \somPC|Add0~1_sumout\ $end
$var wire 1 k \flag~input_o\ $end
$var wire 1 l \je~input_o\ $end
$var wire 1 m \sel_MuxJump~input_o\ $end
$var wire 1 n \sel_MuxPC~combout\ $end
$var wire 1 o \somPC|Add0~2\ $end
$var wire 1 p \somPC|Add0~5_sumout\ $end
$var wire 1 q \somPC|Add0~18\ $end
$var wire 1 r \somPC|Add0~29_sumout\ $end
$var wire 1 s \~GND~combout\ $end
$var wire 1 t \somPC|Add0~30\ $end
$var wire 1 u \somPC|Add0~33_sumout\ $end
$var wire 1 v \somPC|Add0~34\ $end
$var wire 1 w \somPC|Add0~37_sumout\ $end
$var wire 1 x \ROM|memROM~44_combout\ $end
$var wire 1 y \ROM|memROM~45_combout\ $end
$var wire 1 z \ROM|memROM~4_combout\ $end
$var wire 1 { \somPC|Add0~6\ $end
$var wire 1 | \somPC|Add0~21_sumout\ $end
$var wire 1 } \ROM|memROM~46_combout\ $end
$var wire 1 ~ \ROM|memROM~47_combout\ $end
$var wire 1 !! \ROM|memROM~5_combout\ $end
$var wire 1 "! \somPC|Add0~22\ $end
$var wire 1 #! \somPC|Add0~13_sumout\ $end
$var wire 1 $! \ROM|memROM~7_combout\ $end
$var wire 1 %! \ROM|memROM~8_combout\ $end
$var wire 1 &! \ROM|memROM~6_combout\ $end
$var wire 1 '! \ROM|memROM~9_combout\ $end
$var wire 1 (! \ROM|memROM~10_combout\ $end
$var wire 1 )! \somPC|Add0~14\ $end
$var wire 1 *! \somPC|Add0~25_sumout\ $end
$var wire 1 +! \ROM|memROM~11_combout\ $end
$var wire 1 ,! \ROM|memROM~12_combout\ $end
$var wire 1 -! \somPC|Add0~26\ $end
$var wire 1 .! \somPC|Add0~9_sumout\ $end
$var wire 1 /! \ROM|memROM~13_combout\ $end
$var wire 1 0! \ROM|memROM~14_combout\ $end
$var wire 1 1! \somPC|Add0~10\ $end
$var wire 1 2! \somPC|Add0~17_sumout\ $end
$var wire 1 3! \ROM|memROM~0_combout\ $end
$var wire 1 4! \ROM|memROM~2_combout\ $end
$var wire 1 5! \ROM|memROM~1_combout\ $end
$var wire 1 6! \ROM|memROM~43_combout\ $end
$var wire 1 7! \ROM|memROM~3_combout\ $end
$var wire 1 8! \ROM|memROM~16_combout\ $end
$var wire 1 9! \ROM|memROM~17_combout\ $end
$var wire 1 :! \ROM|memROM~15_combout\ $end
$var wire 1 ;! \ROM|memROM~18_combout\ $end
$var wire 1 <! \ROM|memROM~19_combout\ $end
$var wire 1 =! \ROM|memROM~20_combout\ $end
$var wire 1 >! \ROM|memROM~22_combout\ $end
$var wire 1 ?! \ROM|memROM~25_combout\ $end
$var wire 1 @! \ROM|memROM~23_combout\ $end
$var wire 1 A! \ROM|memROM~24_combout\ $end
$var wire 1 B! \ROM|memROM~21_combout\ $end
$var wire 1 C! \ROM|memROM~26_combout\ $end
$var wire 1 D! \ROM|memROM~27_combout\ $end
$var wire 1 E! \ROM|memROM~28_combout\ $end
$var wire 1 F! \ROM|memROM~29_combout\ $end
$var wire 1 G! \ROM|memROM~31_combout\ $end
$var wire 1 H! \ROM|memROM~30_combout\ $end
$var wire 1 I! \ROM|memROM~32_combout\ $end
$var wire 1 J! \ROM|memROM~33_combout\ $end
$var wire 1 K! \ROM|memROM~34_combout\ $end
$var wire 1 L! \ROM|memROM~36_combout\ $end
$var wire 1 M! \ROM|memROM~35_combout\ $end
$var wire 1 N! \ROM|memROM~48_combout\ $end
$var wire 1 O! \ROM|memROM~38_combout\ $end
$var wire 1 P! \ROM|memROM~39_combout\ $end
$var wire 1 Q! \ROM|memROM~40_combout\ $end
$var wire 1 R! \ROM|memROM~41_combout\ $end
$var wire 1 S! \ROM|memROM~37_combout\ $end
$var wire 1 T! \ROM|memROM~42_combout\ $end
$var wire 1 U! \registerPC|DOUT\ [9] $end
$var wire 1 V! \registerPC|DOUT\ [8] $end
$var wire 1 W! \registerPC|DOUT\ [7] $end
$var wire 1 X! \registerPC|DOUT\ [6] $end
$var wire 1 Y! \registerPC|DOUT\ [5] $end
$var wire 1 Z! \registerPC|DOUT\ [4] $end
$var wire 1 [! \registerPC|DOUT\ [3] $end
$var wire 1 \! \registerPC|DOUT\ [2] $end
$var wire 1 ]! \registerPC|DOUT\ [1] $end
$var wire 1 ^! \registerPC|DOUT\ [0] $end
$var wire 1 _! \ALT_INV_sel_MuxJump~input_o\ $end
$var wire 1 `! \ALT_INV_flag~input_o\ $end
$var wire 1 a! \ALT_INV_je~input_o\ $end
$var wire 1 b! \ROM|ALT_INV_memROM~47_combout\ $end
$var wire 1 c! \ROM|ALT_INV_memROM~46_combout\ $end
$var wire 1 d! \ROM|ALT_INV_memROM~45_combout\ $end
$var wire 1 e! \ROM|ALT_INV_memROM~44_combout\ $end
$var wire 1 f! \ROM|ALT_INV_memROM~43_combout\ $end
$var wire 1 g! \ROM|ALT_INV_memROM~41_combout\ $end
$var wire 1 h! \ROM|ALT_INV_memROM~40_combout\ $end
$var wire 1 i! \ROM|ALT_INV_memROM~39_combout\ $end
$var wire 1 j! \ROM|ALT_INV_memROM~38_combout\ $end
$var wire 1 k! \ROM|ALT_INV_memROM~37_combout\ $end
$var wire 1 l! \ROM|ALT_INV_memROM~36_combout\ $end
$var wire 1 m! \ROM|ALT_INV_memROM~35_combout\ $end
$var wire 1 n! \ROM|ALT_INV_memROM~34_combout\ $end
$var wire 1 o! \ROM|ALT_INV_memROM~32_combout\ $end
$var wire 1 p! \ROM|ALT_INV_memROM~31_combout\ $end
$var wire 1 q! \ROM|ALT_INV_memROM~30_combout\ $end
$var wire 1 r! \ROM|ALT_INV_memROM~28_combout\ $end
$var wire 1 s! \ROM|ALT_INV_memROM~27_combout\ $end
$var wire 1 t! \ROM|ALT_INV_memROM~25_combout\ $end
$var wire 1 u! \ROM|ALT_INV_memROM~24_combout\ $end
$var wire 1 v! \ROM|ALT_INV_memROM~23_combout\ $end
$var wire 1 w! \ROM|ALT_INV_memROM~22_combout\ $end
$var wire 1 x! \ROM|ALT_INV_memROM~21_combout\ $end
$var wire 1 y! \ROM|ALT_INV_memROM~19_combout\ $end
$var wire 1 z! \ROM|ALT_INV_memROM~17_combout\ $end
$var wire 1 {! \ROM|ALT_INV_memROM~16_combout\ $end
$var wire 1 |! \ROM|ALT_INV_memROM~15_combout\ $end
$var wire 1 }! \ROM|ALT_INV_memROM~13_combout\ $end
$var wire 1 ~! \ROM|ALT_INV_memROM~11_combout\ $end
$var wire 1 !" \ROM|ALT_INV_memROM~9_combout\ $end
$var wire 1 "" \ROM|ALT_INV_memROM~8_combout\ $end
$var wire 1 #" \ROM|ALT_INV_memROM~7_combout\ $end
$var wire 1 $" \ROM|ALT_INV_memROM~6_combout\ $end
$var wire 1 %" \ROM|ALT_INV_memROM~2_combout\ $end
$var wire 1 &" \ROM|ALT_INV_memROM~1_combout\ $end
$var wire 1 '" \ROM|ALT_INV_memROM~0_combout\ $end
$var wire 1 (" \registerPC|ALT_INV_DOUT\ [9] $end
$var wire 1 )" \registerPC|ALT_INV_DOUT\ [8] $end
$var wire 1 *" \registerPC|ALT_INV_DOUT\ [7] $end
$var wire 1 +" \registerPC|ALT_INV_DOUT\ [6] $end
$var wire 1 ," \registerPC|ALT_INV_DOUT\ [5] $end
$var wire 1 -" \registerPC|ALT_INV_DOUT\ [4] $end
$var wire 1 ." \registerPC|ALT_INV_DOUT\ [3] $end
$var wire 1 /" \registerPC|ALT_INV_DOUT\ [2] $end
$var wire 1 0" \registerPC|ALT_INV_DOUT\ [1] $end
$var wire 1 1" \registerPC|ALT_INV_DOUT\ [0] $end
$upscope $end
$upscope $end
$enddefinitions $end
#0
$dumpvars
0!
0"
04
0?
0@
1A
xB
1C
1D
1E
1F
1G
1H
0I
0J
0K
0L
0h
0i
1j
0k
0l
0m
0n
0o
0p
0q
0r
0s
0t
0u
0v
0w
0x
0y
0z
0{
0|
0}
0~
0!!
0"!
0#!
0$!
0%!
1&!
1'!
0(!
0)!
0*!
0+!
0,!
0-!
0.!
0/!
00!
01!
02!
13!
14!
05!
06!
07!
08!
09!
0:!
0;!
0<!
0=!
0>!
0?!
0@!
0A!
0B!
0C!
0D!
1E!
1F!
0G!
0H!
0I!
0J!
0K!
0L!
0M!
0N!
1O!
0P!
0Q!
1R!
0S!
1T!
1_!
1`!
1a!
1b!
1c!
1d!
1e!
1f!
0g!
1h!
1i!
0j!
1k!
1l!
1m!
1n!
1o!
1p!
1q!
0r!
1s!
1t!
1u!
1v!
1w!
1x!
1y!
1z!
1{!
1|!
1}!
1~!
0!"
1""
1#"
0$"
0%"
1&"
0'"
1M
0N
0O
1P
0Q
0R
0S
0T
0U
0V
0W
0X
0Y
0Z
0[
0\
0]
0^
0_
0`
0a
0b
0c
0d
0e
0f
0g
0U!
0V!
0W!
0X!
0Y!
0Z!
0[!
0\!
0]!
0^!
1("
1)"
1*"
1+"
1,"
1-"
1."
1/"
10"
11"
1#
0$
0%
1&
0'
0(
0)
0*
0+
0,
0-
0.
0/
00
01
02
03
05
06
07
08
09
0:
0;
0<
0=
0>
$end
#10000
1!
1I
1h
1i
1^!
01"
0j
1o
1y
1~
1:!
0E!
1r!
0|!
0b!
0d!
1g
1p
1;!
1>
1S
1)
#20000
0!
0I
0h
0i
#30000
1!
1I
1h
1i
0^!
1]!
00"
11"
1j
0o
0y
0~
1E!
0p
1{
03!
0:!
1<!
1A!
1M!
0m!
0u!
0y!
1|!
1'"
0r!
1b!
1d!
1f
0g
1|
1p
0{
0;!
1=!
0>
1=
0|
1R
0S
0)
1(
#40000
0!
0I
0h
0i
#50000
1!
1?
1I
1K
1m
1h
1i
0_!
1n
1^!
01"
0j
1o
1x
1y
1~
1(!
13!
1:!
1B!
0E!
0M!
1m!
1r!
0x!
0|!
0'"
0b!
0d!
0e!
1g
0p
1{
1z
1;!
1>
1|
1Z
10
1S
1\
12
1)
#60000
0!
0I
0h
0i
#70000
1!
0?
1I
0K
0m
1h
1i
1_!
0n
0^!
1[!
0."
11"
1j
0o
0x
0y
0(!
0z
0~
1#!
0'!
03!
1M!
1Q!
0R!
1g!
0h!
0m!
1'"
1!"
1b!
1d!
1e!
1d
0g
1p
0{
0T!
0>
1;
0|
0\
0Z
02
00
0M
0#
#80000
0!
0I
0h
0i
#90000
1!
1I
1h
1i
1^!
01"
0j
1o
1x
1y
18!
0:!
0<!
1>!
0B!
1K!
0n!
1x!
0w!
1y!
1|!
0{!
0d!
0e!
1g
0p
1{
0;!
0=!
1C!
1>
1|
1Q
0R
0S
0)
0(
1'
#100000
0!
0I
0h
0i
#110000
1!
1I
1h
1i
0^!
0]!
1\!
0/"
10"
11"
1j
0o
0>!
1p
0{
0x
0y
0|
1"!
1%!
08!
1:!
1@!
0A!
0Q!
1h!
1u!
0v!
0|!
1{!
0""
1d!
1e!
1w!
1e
0f
0g
0#!
1)!
1|
0"!
0p
1;!
0>
0=
1<
1#!
0)!
1*!
0*!
1S
1)
#120000
0!
0I
0h
0i
#130000
1!
1I
1h
1i
1^!
01"
0j
1o
1x
1}
1(!
1/!
18!
0:!
1>!
1B!
1D!
1H!
1L!
0l!
0q!
0s!
0x!
0w!
1|!
0{!
0}!
0c!
0e!
1g
1p
1z
1!!
0;!
0C!
0F!
1I!
1N!
1>
0o!
1Z
1J!
10
1N
0P
0Q
0S
1[
1\
12
11
0)
0'
0&
1$
1O
1%
#140000
0!
0I
0h
0i
#150000
1!
1I
1h
1i
0^!
1]!
00"
11"
1j
0o
0>!
0p
1{
0x
0}
0(!
0/!
08!
0H!
0K!
0L!
1l!
1n!
1q!
1{!
1}!
1c!
1e!
1w!
1f
0g
0|
1"!
1p
0{
0z
0!!
0I!
0N!
0>
1=
1|
0"!
0#!
1)!
1o!
0Z
0J!
1*!
1#!
0)!
00
0N
0[
0\
0*!
02
01
0$
0O
0%
#160000
0!
0I
0h
0i
#170000
1!
1I
1h
1i
1^!
01"
0j
1o
1:!
1<!
1>!
0B!
0D!
0O!
1j!
1s!
1x!
0w!
0y!
0|!
1g
0p
1{
1;!
1=!
1C!
1F!
1>
0|
1"!
0#!
1)!
1P
1Q
1R
1S
1*!
1)
1(
1'
1&
#180000
0!
0I
0h
0i
#190000
1!
1I
1h
1i
0^!
0]!
0\!
0[!
1Z!
0-"
1."
1/"
10"
11"
1j
0o
1p
0{
1|
0"!
0@!
1O!
1#!
0)!
13!
0:!
0>!
0M!
1x
1$!
0%!
0*!
1-!
1+!
16!
0;!
0<!
1B!
1D!
1N!
0s!
0x!
1y!
0f!
0~!
1""
0#"
0e!
1m!
1w!
1|!
0'"
0j!
1v!
1c
0d
0e
0f
0g
1.!
1*!
0-!
0#!
0|
0p
1(!
17!
0=!
0C!
0F!
0>
0=
0<
0;
1:
0.!
1N
0S
0)
1$
0P
0Q
0R
1]
1Z
13
10
0(
0'
0&
#200000
0!
0I
0h
0i
#210000
1!
1I
1h
1i
1^!
01"
0j
1o
0x
1y
1}
1~
0(!
1,!
1/!
06!
1:!
0D!
1s!
0|!
1f!
0}!
0b!
0c!
0d!
1e!
1g
1p
1!!
07!
1F!
1>
1Y
0Z
00
1/
1P
0]
1[
03
11
1&
#220000
0!
0I
0h
0i
#230000
1!
1I
1h
1i
0^!
1]!
00"
11"
1j
0o
0y
0~
0p
1{
1x
0}
0,!
0/!
03!
16!
0:!
0B!
1G!
1M!
0m!
0p!
1x!
1|!
0f!
1'"
1}!
1c!
0e!
1b!
1d!
1f
0g
1|
1p
0{
0!!
17!
1I!
0>
1=
0|
0o!
0Y
1J!
0/
1]
0[
13
01
1O
1%
#240000
0!
0I
0h
0i
#250000
1!
1I
1h
1i
1^!
01"
0j
1o
1y
1}
1~
13!
1:!
1B!
1D!
0M!
1S!
0k!
1m!
0s!
0x!
0|!
0'"
0b!
0c!
0d!
1g
0p
1{
1z
1!!
0F!
1>
1|
0P
1[
1\
12
11
0&
#260000
0!
0I
0h
0i
#270000
1!
1I
1h
1i
0^!
0]!
1\!
0/"
10"
11"
1j
0o
1p
0{
1(!
0G!
0S!
0x
0y
0|
1"!
0}
0~
0$!
06!
0:!
1@!
0D!
0I!
1K!
1M!
1P!
0i!
0m!
0n!
1o!
1s!
0v!
1|!
1f!
1#"
1b!
1c!
1d!
1e!
1k!
1p!
1e
0f
0g
1#!
1|
0"!
0p
0z
0!!
0(!
07!
1F!
0J!
0N!
1T!
0>
0=
1<
0#!
1Z
10
1M
0N
0O
1P
0]
0Z
0[
0\
03
02
01
00
1&
0%
0$
1#
#280000
0!
0I
0h
0i
#290000
1!
1I
1h
1i
1^!
01"
0j
1o
18!
1:!
1D!
0P!
1i!
0s!
0|!
0{!
1g
1p
1;!
0F!
0T!
1>
0M
0P
1S
1)
0&
0#
#300000
0!
0I
0h
0i
#310000
1!
1I
1h
1i
0^!
1]!
00"
11"
1j
0o
0p
1{
03!
0:!
1<!
0B!
0D!
1G!
0p!
1s!
1x!
0y!
1|!
1'"
1f
0g
0|
1"!
1p
0{
1=!
1C!
1F!
0>
1=
1|
0"!
1#!
0#!
1P
1Q
1R
1(
1'
1&
#320000
0!
0I
0h
0i
#330000
1!
1I
1h
1i
1^!
01"
0j
1o
1}
13!
16!
0<!
1B!
1D!
0K!
0O!
1S!
0k!
1j!
1n!
0s!
0x!
1y!
0f!
0'"
0c!
1g
0p
1{
1!!
17!
0=!
0C!
0F!
1N!
1>
0|
1"!
1#!
1N
0P
0Q
0R
1]
1[
13
11
0(
0'
0&
1$
#340000
0!
0I
0h
0i
#350000
1!
1I
1h
1i
0^!
0]!
0\!
1[!
0."
1/"
10"
11"
1j
0o
1p
0{
0S!
1x
1|
0"!
0@!
1I!
1O!
0#!
1)!
1,!
1/!
03!
08!
1:!
0D!
0G!
1Q!
0h!
1p!
1s!
0|!
1{!
1'"
0}!
0j!
0o!
1v!
0e!
1k!
1d
0e
0f
0g
0*!
1-!
1#!
0)!
0|
0p
1z
1J!
0;!
1F!
0I!
0>
0=
0<
1;
1*!
0-!
1.!
1o!
1Y
0J!
0.!
1/
1P
0S
1O
1\
12
0)
1&
1%
0O
0%
#360000
0!
0I
0h
0i
#370000
1!
1I
1h
1i
1^!
01"
0j
1o
0x
1y
0}
0,!
0/!
18!
0:!
1>!
0B!
1G!
1H!
0q!
0p!
1x!
0w!
1|!
0{!
1}!
1c!
0d!
1e!
1g
1p
0z
0!!
1;!
1I!
1>
0o!
0Y
1J!
0/
1S
0[
0\
02
01
1)
1O
1%
#380000
0!
0I
0h
0i
#390000
1!
1I
1h
1i
0^!
1]!
00"
11"
1j
0o
0y
0>!
0p
1{
1x
1}
08!
1:!
1B!
1D!
0H!
1q!
0s!
0x!
0|!
1{!
0c!
0e!
1w!
1d!
1f
0g
1|
1p
0{
1z
1!!
0;!
0F!
0>
1=
0|
0P
0S
1[
1\
12
11
0)
0&
#400000
0!
0I
0h
0i
#410000
1!
1I
1h
1i
1^!
01"
0j
1o
1y
0}
06!
18!
0:!
1>!
0D!
0G!
1K!
1S!
0k!
0n!
1p!
1s!
0w!
1|!
0{!
1f!
1c!
0d!
1g
0p
1{
0z
0!!
07!
1;!
1F!
0I!
0N!
1T!
1>
1|
1o!
0J!
1M
0N
1P
1S
0]
0[
0\
03
02
01
1)
1&
0$
1#
0O
0%
#420000
0!
0I
0h
0i
#430000
1!
1I
1h
1i
0^!
0]!
1\!
0/"
10"
11"
1j
0o
0>!
1p
0{
0S!
0x
0y
0|
1"!
1'!
08!
1:!
1<!
1@!
1D!
0Q!
1h!
0s!
0v!
0y!
0|!
1{!
0!"
1d!
1e!
1k!
1w!
1e
0f
0g
0#!
1)!
1|
0"!
0p
0;!
1=!
0F!
0T!
0>
0=
1<
1#!
0)!
0*!
1-!
1.!
1*!
0-!
0M
0P
1R
0S
0.!
0)
1(
0&
0#
#440000
0!
0I
0h
0i
#450000
1!
1I
1h
1i
1^!
01"
0j
1o
18!
0:!
1>!
0B!
0D!
1G!
1H!
1L!
0l!
0q!
0p!
1s!
1x!
0w!
1|!
0{!
1g
1p
1;!
1C!
1F!
1>
1P
1Q
1S
1)
1'
1&
#460000
0!
0I
0h
0i
#470000
1!
1I
1h
1i
0^!
1]!
00"
11"
1j
0o
0>!
0p
1{
1}
16!
08!
1B!
1D!
0H!
0K!
0L!
1l!
1n!
1q!
0s!
0x!
1{!
0f!
0c!
1w!
1f
0g
0|
1"!
1p
0{
1!!
17!
0;!
0C!
0F!
1N!
0>
1=
1|
0"!
0#!
1)!
0*!
1-!
1#!
0)!
1N
0P
0Q
0S
1]
1[
1*!
0-!
1.!
13
11
0)
0'
0&
1$
0.!
#480000
0!
0I
0h
0i
#490000
1!
1I
1h
1i
1^!
01"
0j
1o
1(!
1,!
1/!
06!
1:!
0<!
1>!
0D!
0G!
0O!
1S!
0k!
1j!
1p!
1s!
0w!
1y!
0|!
1f!
0}!
1g
0p
1{
07!
0=!
1F!
1>
0|
1"!
1Y
1Z
0#!
1)!
10
1/
1P
0R
0]
0*!
1-!
03
0(
1&
1.!
#500000
0!
0I
0h
0i
#510000
1!
1I
1h
1i
0^!
0]!
0\!
0[!
0Z!
1Y!
0,"
1-"
1."
1/"
10"
11"
1j
0o
1p
0{
0(!
1|
0"!
0@!
1#!
0)!
0M!
1*!
0-!
0+!
0/!
1;!
1R!
1x
0}
0'!
0,!
0.!
11!
10!
16!
0:!
1<!
0>!
0B!
1G!
1L!
0N!
0S!
1k!
0l!
0p!
1x!
1w!
0y!
1|!
0f!
1!"
1c!
0e!
0g!
1}!
1~!
1m!
1v!
1b
0c
0d
0e
0f
0g
12!
1.!
01!
0*!
0#!
0|
0p
00!
0!!
17!
0;!
1=!
1I!
1N!
0>
0=
0<
0;
0:
19
02!
0o!
0N
1X
0Y
1S
0Z
1J!
00
0/
1.
1)
0$
1N
1R
0S
1]
0[
0X
13
01
0.
0)
1(
1$
1O
1%
#520000
0!
0I
0h
0i
#530000
1!
1I
1h
1i
1^!
01"
0j
1o
1y
1}
0<!
1B!
1D!
1S!
0k!
0s!
0x!
1y!
0c!
0d!
1g
1p
1z
1!!
0=!
0F!
1>
0P
0R
1[
1\
12
11
0(
0&
#540000
0!
0I
0h
0i
#550000
1!
1I
1h
1i
0^!
1]!
00"
11"
1j
0o
0y
0p
1{
0x
0}
06!
1<!
1A!
0D!
0G!
0L!
1M!
1O!
0S!
1k!
0j!
0m!
1l!
1p!
1s!
0u!
0y!
1f!
1c!
1e!
1d!
1f
0g
1|
1p
0{
0z
0!!
07!
1=!
1F!
0I!
0N!
1T!
0>
1=
0|
1o!
0J!
1M
0N
1P
1R
0]
0[
0\
03
02
01
1(
1&
0$
1#
0O
0%
#560000
0!
0I
0h
0i
#570000
1!
1I
1h
1i
1^!
01"
0j
1o
1y
1:!
1D!
1H!
0M!
0O!
1j!
1m!
0q!
0s!
0|!
0d!
1g
0p
1{
1;!
0F!
0T!
1>
1|
0M
0P
1S
1)
0&
0#
#580000
0!
0I
0h
0i
#590000
1!
1I
1h
1i
0^!
0]!
1\!
0/"
10"
11"
1j
0o
1p
0{
0B!
1G!
0H!
1x
0y
0|
1"!
18!
1@!
0A!
0D!
1I!
1K!
1M!
1P!
0i!
0m!
0n!
0o!
1s!
1u!
0v!
0{!
1d!
0e!
1q!
0p!
1x!
1e
0f
0g
1#!
1|
0"!
0p
0I!
1C!
1F!
1J!
0>
0=
1<
0#!
1o!
0J!
1O
1P
1Q
1'
1&
1%
0O
0%
#600000
0!
0I
0h
0i
#610000
1!
1I
1h
1i
1^!
01"
0j
1o
0x
1}
16!
08!
1B!
1D!
1L!
0P!
1S!
0k!
1i!
0l!
0s!
0x!
1{!
0f!
0c!
1e!
1g
1p
1!!
17!
0C!
0F!
1N!
1>
1N
0P
0Q
1]
1[
13
11
0'
0&
1$
#620000
0!
0I
0h
0i
#630000
1!
1I
1h
1i
0^!
1]!
00"
11"
1j
0o
0p
1{
0}
1/!
18!
0:!
0<!
0D!
0G!
0S!
1k!
1p!
1s!
1y!
1|!
0{!
0}!
1c!
1f
0g
0|
1"!
1p
0{
0!!
10!
0;!
0=!
1F!
0>
1=
1|
0"!
1#!
0#!
1P
0R
0S
1X
0[
01
1.
0)
0(
1&
#640000
0!
0I
0h
0i
#650000
1!
1I
1h
1i
1^!
01"
0j
1o
0/!
08!
1:!
1<!
1H!
0K!
1n!
0q!
0y!
0|!
1{!
1}!
1g
0p
1{
00!
1;!
1=!
1I!
1>
0|
1"!
0o!
1J!
1#!
1R
1S
0X
0.
1)
1(
1O
1%
#660000
0!
0I
0h
0i
#670000
1!
1I
1h
1i
0^!
0]!
0\!
1[!
0."
1/"
10"
11"
1j
0o
1p
0{
1x
1|
0"!
0@!
0I!
1}
0#!
1)!
0:!
0<!
1>!
0B!
1D!
1G!
0H!
1Q!
0R!
1g!
0h!
1q!
0p!
0s!
1x!
0w!
1y!
1|!
0c!
1o!
1v!
0e!
1d
0e
0f
0g
1*!
1#!
0)!
0|
0p
1z
0J!
1!!
0;!
0=!
0F!
1I!
0>
0=
0<
1;
0*!
0o!
1J!
0P
0R
0S
1[
0O
1\
12
11
0)
0(
0&
0%
1O
1%
#680000
0!
0I
0h
0i
#690000
1!
1I
1h
1i
1^!
01"
0j
1o
1y
0}
06!
1:!
1<!
1B!
0D!
0G!
0L!
1S!
0k!
1l!
1p!
1s!
0x!
0y!
0|!
1f!
1c!
0d!
1g
1p
0z
0!!
07!
1;!
1=!
1F!
0I!
0N!
1T!
1>
1o!
0J!
1M
0N
1P
1R
1S
0]
0[
0\
03
02
01
1)
1(
1&
0$
1#
0O
0%
#700000
0!
0I
0h
0i
#710000
1!
1I
1h
1i
0^!
1]!
00"
11"
1j
0o
0y
0p
1{
0x
0<!
1A!
0B!
1D!
1O!
0S!
1k!
0j!
0s!
1x!
0u!
1y!
1e!
1d!
1f
0g
1|
1p
0{
0=!
1C!
0F!
0T!
0>
1=
0|
0M
0P
1Q
0R
0(
1'
0&
0#
#720000
0!
0I
0h
0i
#730000
1!
1I
1h
1i
1^!
01"
0j
1o
1y
1<!
0D!
1K!
0O!
1j!
0n!
1s!
0y!
0d!
1g
0p
1{
1=!
1F!
1>
1|
1P
1R
1(
1&
#740000
0!
0I
0h
0i
#750000
1!
1I
1h
1i
0^!
0]!
1\!
0/"
10"
11"
1j
0o
1p
0{
1G!
1x
0y
0|
1"!
1%!
18!
0<!
1@!
0A!
1D!
1L!
0Q!
1h!
0l!
0s!
1u!
0v!
1y!
0{!
0""
1d!
0e!
0p!
1e
0f
0g
0#!
1)!
1|
0"!
0p
1z
0=!
0F!
1N!
0>
0=
1<
1#!
0)!
1*!
0*!
1N
0P
0R
1\
12
0(
0&
1$
#760000
0!
0I
0h
0i
#770000
1!
1I
1h
1i
1^!
01"
0j
1o
0x
1}
1(!
1/!
16!
0:!
1B!
0D!
0G!
1S!
0k!
1p!
1s!
0x!
1|!
0f!
0}!
0c!
1e!
1g
1p
0z
1!!
10!
17!
0;!
0C!
1F!
1>
1Z
10
1P
0Q
0S
1]
1X
1[
0\
13
02
11
1.
0)
0'
1&
#780000
0!
0I
0h
0i
#790000
1!
1I
1h
1i
0^!
1]!
00"
11"
1j
0o
0p
1{
0}
0(!
0/!
06!
0B!
1D!
0K!
0L!
0S!
1k!
1l!
1n!
0s!
1x!
1f!
1}!
1c!
1f
0g
0|
1"!
1p
0{
0!!
00!
07!
1C!
0F!
0N!
0>
1=
1|
0"!
0#!
1)!
0Z
1*!
1#!
0)!
00
0N
0P
1Q
0]
0X
0[
0*!
03
01
0.
1'
0&
0$
#800000
0!
0I
0h
0i
#810000
1!
1I
1h
1i
1^!
01"
0j
1o
08!
1:!
1<!
0D!
1s!
0y!
0|!
1{!
1g
0p
1{
1;!
1=!
1F!
1>
0|
1"!
0#!
1)!
1P
1R
1S
1*!
1)
1(
1&
#820000
0!
0I
0h
0i
