simulation/qsim/projeto1.msim.vcd
$comment
	File created using the following command:
		vcd file projeto1.msim.vcd -direction
$end
$date
	Fri Oct 16 21:11:33 2020
$end
$version
	ModelSim Version 2020.1
$end
$timescale
	1ps
$end

$scope module projeto1_vhd_vec_tst $end
$var wire 1 ! CLOCK_50 $end
$var wire 1 " habBT $end
$var wire 1 # habDisplay $end
$var wire 1 $ habKEY $end
$var wire 1 % habLED $end
$var wire 1 & habRAM $end
$var wire 1 ' habSW $end
$var wire 1 ( pinoTeste [9] $end
$var wire 1 ) pinoTeste [8] $end
$var wire 1 * pinoTeste [7] $end
$var wire 1 + pinoTeste [6] $end
$var wire 1 , pinoTeste [5] $end
$var wire 1 - pinoTeste [4] $end
$var wire 1 . pinoTeste [3] $end
$var wire 1 / pinoTeste [2] $end
$var wire 1 0 pinoTeste [1] $end
$var wire 1 1 pinoTeste [0] $end
$var wire 1 2 t_outMem [7] $end
$var wire 1 3 t_outMem [6] $end
$var wire 1 4 t_outMem [5] $end
$var wire 1 5 t_outMem [4] $end
$var wire 1 6 t_outMem [3] $end
$var wire 1 7 t_outMem [2] $end
$var wire 1 8 t_outMem [1] $end
$var wire 1 9 t_outMem [0] $end

$scope module i1 $end
$var wire 1 : gnd $end
$var wire 1 ; vcc $end
$var wire 1 < unknown $end
$var wire 1 = devoe $end
$var wire 1 > devclrn $end
$var wire 1 ? devpor $end
$var wire 1 @ ww_devoe $end
$var wire 1 A ww_devclrn $end
$var wire 1 B ww_devpor $end
$var wire 1 C ww_CLOCK_50 $end
$var wire 1 D ww_pinoTeste [9] $end
$var wire 1 E ww_pinoTeste [8] $end
$var wire 1 F ww_pinoTeste [7] $end
$var wire 1 G ww_pinoTeste [6] $end
$var wire 1 H ww_pinoTeste [5] $end
$var wire 1 I ww_pinoTeste [4] $end
$var wire 1 J ww_pinoTeste [3] $end
$var wire 1 K ww_pinoTeste [2] $end
$var wire 1 L ww_pinoTeste [1] $end
$var wire 1 M ww_pinoTeste [0] $end
$var wire 1 N ww_t_outMem [7] $end
$var wire 1 O ww_t_outMem [6] $end
$var wire 1 P ww_t_outMem [5] $end
$var wire 1 Q ww_t_outMem [4] $end
$var wire 1 R ww_t_outMem [3] $end
$var wire 1 S ww_t_outMem [2] $end
$var wire 1 T ww_t_outMem [1] $end
$var wire 1 U ww_t_outMem [0] $end
$var wire 1 V ww_habRAM $end
$var wire 1 W ww_habDisplay $end
$var wire 1 X ww_habSW $end
$var wire 1 Y ww_habKEY $end
$var wire 1 Z ww_habLED $end
$var wire 1 [ ww_habBT $end
$var wire 1 \ \~QUARTUS_CREATED_GND~I_combout\ $end
$var wire 1 ] \CLOCK_50~input_o\ $end
$var wire 1 ^ \CLOCK_50~inputCLKENA0_outclk\ $end
$var wire 1 _ \processador|fetch|somPC|Add0~1_sumout\ $end
$var wire 1 ` \processador|fetch|somPC|Add0~2\ $end
$var wire 1 a \processador|fetch|somPC|Add0~5_sumout\ $end
$var wire 1 b \processador|fetch|somPC|Add0~6\ $end
$var wire 1 c \processador|fetch|somPC|Add0~9_sumout\ $end
$var wire 1 d \processador|fetch|somPC|Add0~10\ $end
$var wire 1 e \processador|fetch|somPC|Add0~13_sumout\ $end
$var wire 1 f \processador|fetch|somPC|Add0~14\ $end
$var wire 1 g \processador|fetch|somPC|Add0~17_sumout\ $end
$var wire 1 h \processador|fetch|somPC|Add0~18\ $end
$var wire 1 i \processador|fetch|somPC|Add0~21_sumout\ $end
$var wire 1 j \processador|fetch|registerPC|DOUT[5]~DUPLICATE_q\ $end
$var wire 1 k \processador|fetch|somPC|Add0~22\ $end
$var wire 1 l \processador|fetch|somPC|Add0~25_sumout\ $end
$var wire 1 m \processador|fetch|somPC|Add0~26\ $end
$var wire 1 n \processador|fetch|somPC|Add0~29_sumout\ $end
$var wire 1 o \processador|fetch|somPC|Add0~30\ $end
$var wire 1 p \processador|fetch|somPC|Add0~33_sumout\ $end
$var wire 1 q \processador|fetch|registerPC|DOUT[8]~DUPLICATE_q\ $end
$var wire 1 r \processador|fetch|somPC|Add0~34\ $end
$var wire 1 s \processador|fetch|somPC|Add0~37_sumout\ $end
$var wire 1 t \processador|fetch|registerPC|DOUT[1]~DUPLICATE_q\ $end
$var wire 1 u \processador|fetch|registerPC|DOUT[2]~DUPLICATE_q\ $end
$var wire 1 v \processador|fetch|ROM|memROM~1_combout\ $end
$var wire 1 w \processador|fetch|ROM|memROM~0_combout\ $end
$var wire 1 x \processador|fetch|ROM|memROM~2_combout\ $end
$var wire 1 y \processador|arquitetura|muxInstRAM|saida_MUX[0]~0_combout\ $end
$var wire 1 z \processador|arquitetura|memReg|registrador~30_combout\ $end
$var wire 1 { \processador|arquitetura|memReg|registrador~20_q\ $end
$var wire 1 | \processador|arquitetura|memReg|registrador~31_combout\ $end
$var wire 1 } \processador|arquitetura|memReg|registrador~12_q\ $end
$var wire 1 ~ \processador|arquitetura|memReg|registrador~28_combout\ $end
$var wire 1 !! \processador|fetch|ROM|memROM~3_combout\ $end
$var wire 1 "! \processador|arquitetura|memReg|registrador~21_q\ $end
$var wire 1 #! \processador|arquitetura|memReg|registrador~13_q\ $end
$var wire 1 $! \processador|arquitetura|memReg|registrador~29_combout\ $end
$var wire 1 %! \processador|fetch|ROM|memROM~4_combout\ $end
$var wire 1 &! \processador|fetch|registerPC|DOUT\ [9] $end
$var wire 1 '! \processador|fetch|registerPC|DOUT\ [8] $end
$var wire 1 (! \processador|fetch|registerPC|DOUT\ [7] $end
$var wire 1 )! \processador|fetch|registerPC|DOUT\ [6] $end
$var wire 1 *! \processador|fetch|registerPC|DOUT\ [5] $end
$var wire 1 +! \processador|fetch|registerPC|DOUT\ [4] $end
$var wire 1 ,! \processador|fetch|registerPC|DOUT\ [3] $end
$var wire 1 -! \processador|fetch|registerPC|DOUT\ [2] $end
$var wire 1 .! \processador|fetch|registerPC|DOUT\ [1] $end
$var wire 1 /! \processador|fetch|registerPC|DOUT\ [0] $end
$var wire 1 0! \processador|fetch|registerPC|ALT_INV_DOUT[2]~DUPLICATE_q\ $end
$var wire 1 1! \processador|fetch|registerPC|ALT_INV_DOUT[1]~DUPLICATE_q\ $end
$var wire 1 2! \processador|fetch|ROM|ALT_INV_memROM~4_combout\ $end
$var wire 1 3! \processador|fetch|ROM|ALT_INV_memROM~2_combout\ $end
$var wire 1 4! \processador|fetch|ROM|ALT_INV_memROM~1_combout\ $end
$var wire 1 5! \processador|fetch|ROM|ALT_INV_memROM~0_combout\ $end
$var wire 1 6! \processador|fetch|registerPC|ALT_INV_DOUT\ [9] $end
$var wire 1 7! \processador|fetch|registerPC|ALT_INV_DOUT\ [8] $end
$var wire 1 8! \processador|fetch|registerPC|ALT_INV_DOUT\ [7] $end
$var wire 1 9! \processador|fetch|registerPC|ALT_INV_DOUT\ [6] $end
$var wire 1 :! \processador|fetch|registerPC|ALT_INV_DOUT\ [5] $end
$var wire 1 ;! \processador|fetch|registerPC|ALT_INV_DOUT\ [4] $end
$var wire 1 <! \processador|fetch|registerPC|ALT_INV_DOUT\ [3] $end
$var wire 1 =! \processador|fetch|registerPC|ALT_INV_DOUT\ [2] $end
$var wire 1 >! \processador|fetch|registerPC|ALT_INV_DOUT\ [1] $end
$var wire 1 ?! \processador|fetch|registerPC|ALT_INV_DOUT\ [0] $end
$var wire 1 @! \processador|arquitetura|memReg|ALT_INV_registrador~13_q\ $end
$var wire 1 A! \processador|arquitetura|memReg|ALT_INV_registrador~21_q\ $end
$var wire 1 B! \processador|arquitetura|memReg|ALT_INV_registrador~12_q\ $end
$var wire 1 C! \processador|arquitetura|memReg|ALT_INV_registrador~20_q\ $end
$upscope $end
$upscope $end
$enddefinitions $end
#0
$dumpvars
0!
0"
0#
0$
1%
0&
0'
0:
1;
x<
1=
1>
1?
1@
1A
1B
0C
0V
0W
0X
0Y
1Z
0[
x\
0]
0^
1_
0`
0a
0b
0c
0d
0e
0f
0g
0h
0i
0j
0k
0l
0m
0n
0o
0p
0q
0r
0s
0t
0u
1v
1w
1x
0y
0z
0{
1|
0}
0~
1!!
0"!
0#!
0$!
0%!
10!
11!
12!
03!
04!
05!
1@!
1A!
1B!
1C!
0D
0E
0F
0G
0H
0I
0J
0K
0L
0M
0N
0O
0P
0Q
0R
0S
0T
0U
0&!
0'!
0(!
0)!
0*!
0+!
0,!
0-!
0.!
0/!
16!
17!
18!
19!
1:!
1;!
1<!
1=!
1>!
1?!
0(
0)
0*
0+
0,
0-
0.
0/
00
01
02
03
04
05
06
07
08
09
$end
#10000
1!
1C
1]
1^
1/!
1#!
0@!
0?!
0_
1`
0|
0!!
1%!
1$!
02!
1M
1a
11
1T
1[
0Z
18
1"
0%
#20000
0!
0C
0]
0^
#30000
1!
1C
1]
1^
0/!
1.!
1t
01!
0>!
1?!
1_
0`
0a
1b
0x
0$!
13!
1L
0M
1c
1a
0b
1z
01
10
0c
0T
08
#40000
0!
0C
0]
0^
#50000
1!
1C
1]
1^
1/!
0?!
0_
1`
1x
03!
1M
0a
1b
1y
0z
11
1c
#60000
0!
0C
0]
0^
#70000
1!
1C
1]
1^
0/!
0.!
1-!
0t
1u
00!
11!
0=!
1>!
1?!
1_
0`
1a
0b
0c
1d
0y
1|
1!!
1$!
0v
0x
0%!
12!
13!
14!
1K
0L
0M
1e
1c
0d
0a
0!!
01
00
1/
0e
0[
1T
1Z
0"
18
1%
#80000
0!
0C
0]
0^
#90000
1!
1C
1]
1^
1/!
0#!
1@!
0?!
0_
1`
0$!
1M
1a
11
0T
08
#100000
0!
0C
0]
0^
#110000
1!
1C
1]
1^
0/!
1.!
1t
01!
0>!
1?!
1_
0`
0a
1b
1L
0M
0c
1d
1a
0b
01
10
1c
0d
1e
0e
#120000
0!
0C
0]
0^
#130000
1!
1C
1]
1^
1/!
0?!
0_
1`
1M
0a
1b
11
0c
1d
1e
#140000
0!
0C
0]
0^
#150000
1!
1C
1]
1^
0/!
0.!
0-!
1,!
0t
0u
10!
11!
0<!
1=!
1>!
1?!
1_
0`
1a
0b
1c
0d
0e
1f
1J
0K
0L
0M
1g
1e
0f
0c
0a
01
00
0/
1.
0g
#160000
0!
0C
0]
0^
#170000
1!
1C
1]
1^
1/!
0?!
0_
1`
1M
1a
11
#180000
0!
0C
0]
0^
#190000
1!
1C
1]
1^
0/!
1.!
1t
01!
0>!
1?!
1_
0`
0a
1b
1L
0M
1c
1a
0b
01
10
0c
#200000
0!
0C
0]
0^
#210000
1!
1C
1]
1^
1/!
0?!
0_
1`
1M
0a
1b
11
1c
#220000
0!
0C
0]
0^
#230000
1!
1C
1]
1^
0/!
0.!
1-!
0t
1u
00!
11!
0=!
1>!
1?!
1_
0`
1a
0b
0c
1d
1K
0L
0M
0e
1f
1c
0d
0a
01
00
1/
1e
0f
1g
0g
#240000
0!
0C
0]
0^
#250000
1!
1C
1]
1^
1/!
0?!
0_
1`
1M
1a
11
#260000
0!
0C
0]
0^
#270000
1!
1C
1]
1^
0/!
1.!
1t
01!
0>!
1?!
1_
0`
0a
1b
1L
0M
0c
1d
1a
0b
01
10
1c
0d
0e
1f
1g
1e
0f
0g
#280000
0!
0C
0]
0^
#290000
1!
1C
1]
1^
1/!
0?!
0_
1`
1M
0a
1b
11
0c
1d
0e
1f
1g
#300000
0!
0C
0]
0^
#310000
1!
1C
1]
1^
0/!
0.!
0-!
0,!
1+!
0t
0u
10!
11!
0;!
1<!
1=!
1>!
1?!
1_
0`
1a
0b
1c
0d
1e
0f
0g
1h
0w
1v
1x
03!
04!
15!
1I
0J
0K
0L
0M
1i
1g
0h
0e
0c
0a
01
00
0/
0.
1-
0i
#320000
0!
0C
0]
0^
#330000
1!
1C
1]
1^
1/!
0?!
0_
1`
1M
1a
11
#340000
0!
0C
0]
0^
#350000
1!
1C
1]
1^
0/!
1.!
1t
01!
0>!
1?!
1_
0`
0a
1b
0x
13!
1L
0M
1c
1a
0b
01
10
0c
#360000
0!
0C
0]
0^
#370000
1!
1C
1]
1^
1/!
0?!
0_
1`
1x
03!
1M
0a
1b
11
1c
#380000
0!
0C
0]
0^
#390000
1!
1C
1]
1^
0/!
0.!
1-!
0t
1u
00!
11!
0=!
1>!
1?!
1_
0`
1a
0b
0c
1d
0v
0x
13!
14!
1K
0L
0M
1e
1c
0d
0a
01
00
1/
0e
#400000
0!
0C
0]
0^
#410000
1!
1C
1]
1^
1/!
0?!
0_
1`
1M
1a
11
#420000
0!
0C
0]
0^
#430000
1!
1C
1]
1^
0/!
1.!
1t
01!
0>!
1?!
1_
0`
0a
1b
1L
0M
0c
1d
1a
0b
01
10
1c
0d
1e
0e
#440000
0!
0C
0]
0^
#450000
1!
1C
1]
1^
1/!
0?!
0_
1`
1M
0a
1b
11
0c
1d
1e
#460000
0!
0C
0]
0^
#470000
1!
1C
1]
1^
0/!
0.!
0-!
1,!
0t
0u
10!
11!
0<!
1=!
1>!
1?!
1_
0`
1a
0b
1c
0d
0e
1f
1J
0K
0L
0M
0g
1h
1e
0f
0c
0a
01
00
0/
1.
1g
0h
1i
0i
#480000
0!
0C
0]
0^
#490000
1!
1C
1]
1^
1/!
0?!
0_
1`
1M
1a
11
#500000
0!
0C
0]
0^
#510000
1!
1C
1]
1^
0/!
1.!
1t
01!
0>!
1?!
1_
0`
0a
1b
1L
0M
1c
1a
0b
01
10
0c
#520000
0!
0C
0]
0^
#530000
1!
1C
1]
1^
1/!
0?!
0_
1`
1M
0a
1b
11
1c
#540000
0!
0C
0]
0^
#550000
1!
1C
1]
1^
0/!
0.!
1-!
0t
1u
00!
11!
0=!
1>!
1?!
1_
0`
1a
0b
0c
1d
1K
0L
0M
0e
1f
1c
0d
0a
01
00
1/
1e
0f
0g
1h
1i
1g
0h
0i
#560000
0!
0C
0]
0^
#570000
1!
1C
1]
1^
1/!
0?!
0_
1`
1M
1a
11
#580000
0!
0C
0]
0^
#590000
1!
1C
1]
1^
0/!
1.!
1t
01!
0>!
1?!
1_
0`
0a
1b
1L
0M
0c
1d
1a
0b
01
10
1c
0d
0e
1f
0g
1h
1e
0f
1g
0h
1i
0i
#600000
0!
0C
0]
0^
#610000
1!
1C
1]
1^
1/!
0?!
0_
1`
1M
0a
1b
11
0c
1d
0e
1f
0g
1h
1i
#620000
0!
0C
0]
0^
#630000
1!
1C
1]
1^
0/!
0.!
0-!
0,!
0+!
1*!
1j
0t
0u
10!
11!
0:!
1;!
1<!
1=!
1>!
1?!
1_
0`
1a
0b
1c
0d
1e
0f
1g
0h
0i
1k
1v
1x
03!
04!
1H
0I
0J
0K
0L
0M
1l
1i
0k
0g
0e
0c
0a
01
00
0/
0.
0-
1,
0l
#640000
0!
0C
0]
0^
#650000
1!
1C
1]
1^
1/!
0?!
0_
1`
1M
1a
11
#660000
0!
0C
0]
0^
#670000
1!
1C
1]
1^
0/!
1.!
1t
01!
0>!
1?!
1_
0`
0a
1b
0x
13!
1L
0M
1c
1a
0b
01
10
0c
#680000
0!
0C
0]
0^
#690000
1!
1C
1]
1^
1/!
0?!
0_
1`
1x
03!
1M
0a
1b
11
1c
#700000
0!
0C
0]
0^
#710000
1!
1C
1]
1^
0/!
0.!
1-!
0t
1u
00!
11!
0=!
1>!
1?!
1_
0`
1a
0b
0c
1d
0v
0x
13!
14!
1K
0L
0M
1e
1c
0d
0a
01
00
1/
0e
#720000
0!
0C
0]
0^
#730000
1!
1C
1]
1^
1/!
0?!
0_
1`
1M
1a
11
#740000
0!
0C
0]
0^
#750000
1!
1C
1]
1^
0/!
1.!
1t
01!
0>!
1?!
1_
0`
0a
1b
1L
0M
0c
1d
1a
0b
01
10
1c
0d
1e
0e
#760000
0!
0C
0]
0^
#770000
1!
1C
1]
1^
1/!
0?!
0_
1`
1M
0a
1b
11
0c
1d
1e
#780000
0!
0C
0]
0^
#790000
1!
1C
1]
1^
0/!
0.!
0-!
1,!
0t
0u
10!
11!
0<!
1=!
1>!
1?!
1_
0`
1a
0b
1c
0d
0e
1f
1J
0K
0L
0M
1g
1e
0f
0c
0a
01
00
0/
1.
0g
#800000
0!
0C
0]
0^
#810000
1!
1C
1]
1^
1/!
0?!
0_
1`
1M
1a
11
#820000
0!
0C
0]
0^
#830000
1!
1C
1]
1^
0/!
1.!
1t
01!
0>!
1?!
1_
0`
0a
1b
1L
0M
1c
1a
0b
01
10
0c
#840000
0!
0C
0]
0^
#850000
1!
1C
1]
1^
1/!
0?!
0_
1`
1M
0a
1b
11
1c
#860000
0!
0C
0]
0^
#870000
1!
1C
1]
1^
0/!
0.!
1-!
0t
1u
00!
11!
0=!
1>!
1?!
1_
0`
1a
0b
0c
1d
1K
0L
0M
0e
1f
1c
0d
0a
01
00
1/
1e
0f
1g
0g
#880000
0!
0C
0]
0^
#890000
1!
1C
1]
1^
1/!
0?!
0_
1`
1M
1a
11
#900000
0!
0C
0]
0^
#910000
1!
1C
1]
1^
0/!
1.!
1t
01!
0>!
1?!
1_
0`
0a
1b
1L
0M
0c
1d
1a
0b
01
10
1c
0d
0e
1f
1g
1e
0f
0g
#920000
0!
0C
0]
0^
#930000
1!
1C
1]
1^
1/!
0?!
0_
1`
1M
0a
1b
11
0c
1d
0e
1f
1g
#940000
0!
0C
0]
0^
#950000
1!
1C
1]
1^
0/!
0.!
0-!
0,!
1+!
0t
0u
10!
11!
0;!
1<!
1=!
1>!
1?!
1_
0`
1a
0b
1c
0d
1e
0f
0g
1h
1v
1x
03!
04!
1I
0J
0K
0L
0M
0i
1k
1g
0h
0e
0c
0a
01
00
0/
0.
1-
1i
0k
1l
0l
#960000
0!
0C
0]
0^
#970000
1!
1C
1]
1^
1/!
0?!
0_
1`
1M
1a
11
#980000
0!
0C
0]
0^
#990000
1!
1C
1]
1^
0/!
1.!
1t
01!
0>!
1?!
1_
0`
0a
1b
0x
13!
1L
0M
1c
1a
0b
01
10
0c
