simulation/qsim/projeto1.msim.vcd
$comment
	File created using the following command:
		vcd file projeto1.msim.vcd -direction
$end
$date
	Fri Oct 16 15:16:34 2020
$end
$version
	ModelSim Version 2020.1
$end
$timescale
	1ps
$end

$scope module processador_vhd_vec_tst $end
$var wire 1 ! clk $end
$var wire 1 " in_MuxRAM [7] $end
$var wire 1 # in_MuxRAM [6] $end
$var wire 1 $ in_MuxRAM [5] $end
$var wire 1 % in_MuxRAM [4] $end
$var wire 1 & in_MuxRAM [3] $end
$var wire 1 ' in_MuxRAM [2] $end
$var wire 1 ( in_MuxRAM [1] $end
$var wire 1 ) in_MuxRAM [0] $end
$var wire 1 * out_addrImediato [9] $end
$var wire 1 + out_addrImediato [8] $end
$var wire 1 , out_addrImediato [7] $end
$var wire 1 - out_addrImediato [6] $end
$var wire 1 . out_addrImediato [5] $end
$var wire 1 / out_addrImediato [4] $end
$var wire 1 0 out_addrImediato [3] $end
$var wire 1 1 out_addrImediato [2] $end
$var wire 1 2 out_addrImediato [1] $end
$var wire 1 3 out_addrImediato [0] $end
$var wire 1 4 out_habEscMEM $end
$var wire 1 5 out_habLeiMEM $end
$var wire 1 6 out_memReg [7] $end
$var wire 1 7 out_memReg [6] $end
$var wire 1 8 out_memReg [5] $end
$var wire 1 9 out_memReg [4] $end
$var wire 1 : out_memReg [3] $end
$var wire 1 ; out_memReg [2] $end
$var wire 1 < out_memReg [1] $end
$var wire 1 = out_memReg [0] $end

$scope module i1 $end
$var wire 1 > gnd $end
$var wire 1 ? vcc $end
$var wire 1 @ unknown $end
$var wire 1 A devoe $end
$var wire 1 B devclrn $end
$var wire 1 C devpor $end
$var wire 1 D ww_devoe $end
$var wire 1 E ww_devclrn $end
$var wire 1 F ww_devpor $end
$var wire 1 G ww_clk $end
$var wire 1 H ww_in_MuxRAM [7] $end
$var wire 1 I ww_in_MuxRAM [6] $end
$var wire 1 J ww_in_MuxRAM [5] $end
$var wire 1 K ww_in_MuxRAM [4] $end
$var wire 1 L ww_in_MuxRAM [3] $end
$var wire 1 M ww_in_MuxRAM [2] $end
$var wire 1 N ww_in_MuxRAM [1] $end
$var wire 1 O ww_in_MuxRAM [0] $end
$var wire 1 P ww_out_memReg [7] $end
$var wire 1 Q ww_out_memReg [6] $end
$var wire 1 R ww_out_memReg [5] $end
$var wire 1 S ww_out_memReg [4] $end
$var wire 1 T ww_out_memReg [3] $end
$var wire 1 U ww_out_memReg [2] $end
$var wire 1 V ww_out_memReg [1] $end
$var wire 1 W ww_out_memReg [0] $end
$var wire 1 X ww_out_addrImediato [9] $end
$var wire 1 Y ww_out_addrImediato [8] $end
$var wire 1 Z ww_out_addrImediato [7] $end
$var wire 1 [ ww_out_addrImediato [6] $end
$var wire 1 \ ww_out_addrImediato [5] $end
$var wire 1 ] ww_out_addrImediato [4] $end
$var wire 1 ^ ww_out_addrImediato [3] $end
$var wire 1 _ ww_out_addrImediato [2] $end
$var wire 1 ` ww_out_addrImediato [1] $end
$var wire 1 a ww_out_addrImediato [0] $end
$var wire 1 b ww_out_habLeiMEM $end
$var wire 1 c ww_out_habEscMEM $end
$var wire 1 d \in_MuxRAM[0]~input_o\ $end
$var wire 1 e \in_MuxRAM[1]~input_o\ $end
$var wire 1 f \in_MuxRAM[2]~input_o\ $end
$var wire 1 g \in_MuxRAM[3]~input_o\ $end
$var wire 1 h \in_MuxRAM[4]~input_o\ $end
$var wire 1 i \in_MuxRAM[5]~input_o\ $end
$var wire 1 j \in_MuxRAM[6]~input_o\ $end
$var wire 1 k \in_MuxRAM[7]~input_o\ $end
$var wire 1 l \~QUARTUS_CREATED_GND~I_combout\ $end
$var wire 1 m \clk~input_o\ $end
$var wire 1 n \clk~inputCLKENA0_outclk\ $end
$var wire 1 o \fetch|somPC|Add0~1_sumout\ $end
$var wire 1 p \fetch|somPC|Add0~2\ $end
$var wire 1 q \fetch|somPC|Add0~21_sumout\ $end
$var wire 1 r \fetch|somPC|Add0~22\ $end
$var wire 1 s \fetch|somPC|Add0~17_sumout\ $end
$var wire 1 t \fetch|somPC|Add0~18\ $end
$var wire 1 u \fetch|somPC|Add0~13_sumout\ $end
$var wire 1 v \fetch|somPC|Add0~14\ $end
$var wire 1 w \fetch|somPC|Add0~9_sumout\ $end
$var wire 1 x \fetch|somPC|Add0~10\ $end
$var wire 1 y \fetch|somPC|Add0~5_sumout\ $end
$var wire 1 z \fetch|somPC|Add0~6\ $end
$var wire 1 { \fetch|somPC|Add0~37_sumout\ $end
$var wire 1 | \fetch|somPC|Add0~38\ $end
$var wire 1 } \fetch|somPC|Add0~33_sumout\ $end
$var wire 1 ~ \fetch|somPC|Add0~34\ $end
$var wire 1 !! \fetch|somPC|Add0~29_sumout\ $end
$var wire 1 "! \fetch|somPC|Add0~30\ $end
$var wire 1 #! \fetch|somPC|Add0~25_sumout\ $end
$var wire 1 $! \fetch|ROM|memROM~0_combout\ $end
$var wire 1 %! \fetch|ROM|memROM~1_combout\ $end
$var wire 1 &! \fetch|ROM|memROM~2_combout\ $end
$var wire 1 '! \fetch|registerPC|DOUT\ [9] $end
$var wire 1 (! \fetch|registerPC|DOUT\ [8] $end
$var wire 1 )! \fetch|registerPC|DOUT\ [7] $end
$var wire 1 *! \fetch|registerPC|DOUT\ [6] $end
$var wire 1 +! \fetch|registerPC|DOUT\ [5] $end
$var wire 1 ,! \fetch|registerPC|DOUT\ [4] $end
$var wire 1 -! \fetch|registerPC|DOUT\ [3] $end
$var wire 1 .! \fetch|registerPC|DOUT\ [2] $end
$var wire 1 /! \fetch|registerPC|DOUT\ [1] $end
$var wire 1 0! \fetch|registerPC|DOUT\ [0] $end
$var wire 1 1! \fetch|ROM|ALT_INV_memROM~2_combout\ $end
$var wire 1 2! \fetch|ROM|ALT_INV_memROM~0_combout\ $end
$var wire 1 3! \fetch|registerPC|ALT_INV_DOUT\ [9] $end
$var wire 1 4! \fetch|registerPC|ALT_INV_DOUT\ [8] $end
$var wire 1 5! \fetch|registerPC|ALT_INV_DOUT\ [7] $end
$var wire 1 6! \fetch|registerPC|ALT_INV_DOUT\ [6] $end
$var wire 1 7! \fetch|registerPC|ALT_INV_DOUT\ [5] $end
$var wire 1 8! \fetch|registerPC|ALT_INV_DOUT\ [4] $end
$var wire 1 9! \fetch|registerPC|ALT_INV_DOUT\ [3] $end
$var wire 1 :! \fetch|registerPC|ALT_INV_DOUT\ [2] $end
$var wire 1 ;! \fetch|registerPC|ALT_INV_DOUT\ [1] $end
$var wire 1 <! \fetch|registerPC|ALT_INV_DOUT\ [0] $end
$upscope $end
$upscope $end
$enddefinitions $end
#0
$dumpvars
0!
04
05
0>
1?
x@
1A
1B
1C
1D
1E
1F
0G
0b
0c
0d
0e
0f
0g
0h
0i
0j
0k
xl
0m
0n
1o
0p
0q
0r
0s
0t
0u
0v
0w
0x
0y
0z
0{
0|
0}
0~
0!!
0"!
0#!
1$!
0%!
1&!
01!
02!
0"
0#
0$
0%
0&
0'
0(
0)
0H
0I
0J
0K
0L
0M
0N
0O
0P
0Q
0R
0S
0T
0U
0V
0W
0X
0Y
0Z
0[
0\
0]
0^
0_
1`
0a
0'!
0(!
0)!
0*!
0+!
0,!
0-!
0.!
0/!
00!
13!
14!
15!
16!
17!
18!
19!
1:!
1;!
1<!
0*
0+
0,
0-
0.
0/
00
01
12
03
06
07
08
09
0:
0;
0<
0=
$end
#10000
1!
1G
1m
1n
10!
0<!
0o
1p
1%!
1q
1a
13
#20000
0!
0G
0m
0n
#30000
1!
1G
1m
1n
00!
1/!
0;!
1<!
1o
0p
0%!
0q
1r
0$!
12!
1s
1q
0r
0&!
0s
11!
0a
03
0`
1b
02
15
#40000
0!
0G
0m
0n
#50000
1!
1G
1m
1n
10!
0<!
0o
1p
0q
1r
1s
#60000
0!
0G
0m
0n
#70000
1!
1G
1m
1n
00!
0/!
1.!
0:!
1;!
1<!
1o
0p
1q
0r
1$!
0s
1t
02!
1u
1s
0t
0q
0u
#80000
0!
0G
0m
0n
#90000
1!
1G
1m
1n
10!
0<!
0o
1p
1q
#100000
0!
0G
0m
0n
#110000
1!
1G
1m
1n
00!
1/!
0;!
1<!
1o
0p
0q
1r
0$!
12!
0s
1t
1q
0r
1s
0t
1u
0u
#120000
0!
0G
0m
0n
#130000
1!
1G
1m
1n
10!
0<!
0o
1p
0q
1r
0s
1t
1u
#140000
0!
0G
0m
0n
#150000
1!
1G
1m
1n
00!
0/!
0.!
1-!
09!
1:!
1;!
1<!
1o
0p
1q
0r
1$!
1s
0t
0u
1v
02!
1w
1u
0v
0s
0q
0w
#160000
0!
0G
0m
0n
#170000
1!
1G
1m
1n
10!
0<!
0o
1p
1q
#180000
0!
0G
0m
0n
#190000
1!
1G
1m
1n
00!
1/!
0;!
1<!
1o
0p
0q
1r
0$!
12!
1s
1q
0r
0s
#200000
0!
0G
0m
0n
#210000
1!
1G
1m
1n
10!
0<!
0o
1p
0q
1r
1s
#220000
0!
0G
0m
0n
#230000
1!
1G
1m
1n
00!
0/!
1.!
0:!
1;!
1<!
1o
0p
1q
0r
1$!
0s
1t
02!
0u
1v
1s
0t
0q
1u
0v
1w
0w
#240000
0!
0G
0m
0n
#250000
1!
1G
1m
1n
10!
0<!
0o
1p
1q
#260000
0!
0G
0m
0n
#270000
1!
1G
1m
1n
00!
1/!
0;!
1<!
1o
0p
0q
1r
0$!
12!
0s
1t
1q
0r
1s
0t
0u
1v
1w
1u
0v
0w
#280000
0!
0G
0m
0n
#290000
1!
1G
1m
1n
10!
0<!
0o
1p
0q
1r
0s
1t
0u
1v
1w
#300000
0!
0G
0m
0n
#310000
1!
1G
1m
1n
00!
0/!
0.!
0-!
1,!
08!
19!
1:!
1;!
1<!
1o
0p
1q
0r
1$!
1s
0t
1u
0v
0w
1x
02!
1y
1w
0x
0u
0s
0q
0y
#320000
0!
0G
0m
0n
#330000
1!
1G
1m
1n
10!
0<!
0o
1p
1q
#340000
0!
0G
0m
0n
#350000
1!
1G
1m
1n
00!
1/!
0;!
1<!
1o
0p
0q
1r
0$!
12!
1s
1q
0r
0s
#360000
0!
0G
0m
0n
#370000
1!
1G
1m
1n
10!
0<!
0o
1p
0q
1r
1s
#380000
0!
0G
0m
0n
#390000
1!
1G
1m
1n
00!
0/!
1.!
0:!
1;!
1<!
1o
0p
1q
0r
1$!
0s
1t
02!
1u
1s
0t
0q
0u
#400000
0!
0G
0m
0n
#410000
1!
1G
1m
1n
10!
0<!
0o
1p
1q
#420000
0!
0G
0m
0n
#430000
1!
1G
1m
1n
00!
1/!
0;!
1<!
1o
0p
0q
1r
0$!
12!
0s
1t
1q
0r
1s
0t
1u
0u
#440000
0!
0G
0m
0n
#450000
1!
1G
1m
1n
10!
0<!
0o
1p
0q
1r
0s
1t
1u
#460000
0!
0G
0m
0n
#470000
1!
1G
1m
1n
00!
0/!
0.!
1-!
09!
1:!
1;!
1<!
1o
0p
1q
0r
1$!
1s
0t
0u
1v
02!
0w
1x
1u
0v
0s
0q
1w
0x
1y
0y
#480000
0!
0G
0m
0n
#490000
1!
1G
1m
1n
10!
0<!
0o
1p
1q
#500000
0!
0G
0m
0n
#510000
1!
1G
1m
1n
00!
1/!
0;!
1<!
1o
0p
0q
1r
0$!
12!
1s
1q
0r
0s
#520000
0!
0G
0m
0n
#530000
1!
1G
1m
1n
10!
0<!
0o
1p
0q
1r
1s
#540000
0!
0G
0m
0n
#550000
1!
1G
1m
1n
00!
0/!
1.!
0:!
1;!
1<!
1o
0p
1q
0r
1$!
0s
1t
02!
0u
1v
1s
0t
0q
1u
0v
0w
1x
1y
1w
0x
0y
#560000
0!
0G
0m
0n
#570000
1!
1G
1m
1n
10!
0<!
0o
1p
1q
#580000
0!
0G
0m
0n
#590000
1!
1G
1m
1n
00!
1/!
0;!
1<!
1o
0p
0q
1r
0$!
12!
0s
1t
1q
0r
1s
0t
0u
1v
0w
1x
1u
0v
1w
0x
1y
0y
#600000
0!
0G
0m
0n
#610000
1!
1G
1m
1n
10!
0<!
0o
1p
0q
1r
0s
1t
0u
1v
0w
1x
1y
#620000
0!
0G
0m
0n
#630000
1!
1G
1m
1n
00!
0/!
0.!
0-!
0,!
1+!
07!
18!
19!
1:!
1;!
1<!
1o
0p
1q
0r
1$!
1s
0t
1u
0v
1w
0x
0y
1z
02!
1{
1y
0z
0w
0u
0s
0q
0{
#640000
0!
0G
0m
0n
#650000
1!
1G
1m
1n
10!
0<!
0o
1p
1q
#660000
0!
0G
0m
0n
#670000
1!
1G
1m
1n
00!
1/!
0;!
1<!
1o
0p
0q
1r
0$!
12!
1s
1q
0r
0s
#680000
0!
0G
0m
0n
#690000
1!
1G
1m
1n
10!
0<!
0o
1p
0q
1r
1s
#700000
0!
0G
0m
0n
#710000
1!
1G
1m
1n
00!
0/!
1.!
0:!
1;!
1<!
1o
0p
1q
0r
1$!
0s
1t
02!
1u
1s
0t
0q
0u
#720000
0!
0G
0m
0n
#730000
1!
1G
1m
1n
10!
0<!
0o
1p
1q
#740000
0!
0G
0m
0n
#750000
1!
1G
1m
1n
00!
1/!
0;!
1<!
1o
0p
0q
1r
0$!
12!
0s
1t
1q
0r
1s
0t
1u
0u
#760000
0!
0G
0m
0n
#770000
1!
1G
1m
1n
10!
0<!
0o
1p
0q
1r
0s
1t
1u
#780000
0!
0G
0m
0n
#790000
1!
1G
1m
1n
00!
0/!
0.!
1-!
09!
1:!
1;!
1<!
1o
0p
1q
0r
1$!
1s
0t
0u
1v
02!
1w
1u
0v
0s
0q
0w
#800000
0!
0G
0m
0n
#810000
1!
1G
1m
1n
10!
0<!
0o
1p
1q
#820000
0!
0G
0m
0n
#830000
1!
1G
1m
1n
00!
1/!
0;!
1<!
1o
0p
0q
1r
0$!
12!
1s
1q
0r
0s
#840000
0!
0G
0m
0n
#850000
1!
1G
1m
1n
10!
0<!
0o
1p
0q
1r
1s
#860000
0!
0G
0m
0n
#870000
1!
1G
1m
1n
00!
0/!
1.!
0:!
1;!
1<!
1o
0p
1q
0r
1$!
0s
1t
02!
0u
1v
1s
0t
0q
1u
0v
1w
0w
#880000
0!
0G
0m
0n
#890000
1!
1G
1m
1n
10!
0<!
0o
1p
1q
#900000
0!
0G
0m
0n
#910000
1!
1G
1m
1n
00!
1/!
0;!
1<!
1o
0p
0q
1r
0$!
12!
0s
1t
1q
0r
1s
0t
0u
1v
1w
1u
0v
0w
#920000
0!
0G
0m
0n
#930000
1!
1G
1m
1n
10!
0<!
0o
1p
0q
1r
0s
1t
0u
1v
1w
#940000
0!
0G
0m
0n
#950000
1!
1G
1m
1n
00!
0/!
0.!
0-!
1,!
08!
19!
1:!
1;!
1<!
1o
0p
1q
0r
1$!
1s
0t
1u
0v
0w
1x
02!
0y
1z
1w
0x
0u
0s
0q
1y
0z
1{
0{
#960000
0!
0G
0m
0n
#970000
1!
1G
1m
1n
10!
0<!
0o
1p
1q
#980000
0!
0G
0m
0n
#990000
1!
1G
1m
1n
00!
1/!
0;!
1<!
1o
0p
0q
1r
0$!
12!
1s
1q
0r
0s
